/*
 ISC License

 Copyright (c) 2016-2018, Autonomous Vehicle Systems Lab, University of Colorado at Boulder

 Permission to use, copy, modify, and/or distribute this software for any
 purpose with or without fee is hereby granted, provided that the above
 copyright notice and this permission notice appear in all copies.

 THE SOFTWARE IS PROVIDED "AS IS" AND THE AUTHOR DISCLAIMS ALL WARRANTIES
 WITH REGARD TO THIS SOFTWARE INCLUDING ALL IMPLIED WARRANTIES OF
 MERCHANTABILITY AND FITNESS. IN NO EVENT SHALL THE AUTHOR BE LIABLE FOR
 ANY SPECIAL, DIRECT, INDIRECT, OR CONSEQUENTIAL DAMAGES OR ANY DAMAGES
 WHATSOEVER RESULTING FROM LOSS OF USE, DATA OR PROFITS, WHETHER IN AN
 ACTION OF CONTRACT, NEGLIGENCE OR OTHER TORTIOUS ACTION, ARISING OUT OF
 OR IN CONNECTION WITH THE USE OR PERFORMANCE OF THIS SOFTWARE.

 */
%module thrFiringRemainder
%{
   #include "thrFiringRemainder.h"
%}

%include "swig_conly_data.i"
%constant void Update_thrFiringRemainder(void*, uint64_t, uint64_t);
%ignore Update_thrFiringRemainder;
%constant void SelfInit_thrFiringRemainder(void*, uint64_t);
%ignore SelfInit_thrFiringRemainder;
%constant void CrossInit_thrFiringRemainder(void*, uint64_t);
%ignore CrossInit_thrFiringRemainder;
%constant void Reset_thrFiringRemainder(void*, uint64_t, uint64_t);
%ignore Reset_thrFiringRemainder;
GEN_SIZEOF(thrFiringRemainderConfig);
%include "thrFiringRemainder.h"
%include "../../fswMessages/thrArrayConfigFswMsg.h"
GEN_SIZEOF(THRArrayConfigFswMsg);
%include "../../fswMessages/thrArrayCmdForceFswMsg.h"
GEN_SIZEOF(THRArrayCmdForceFswMsg);
%include "simFswInterfaceMessages/thrArrayOnTimeCmdIntMsg.h"
%pythoncode %{
import sys
protectAllClasses(sys.modules[__name__])
%}
